{
    "KPlugin": {
        "Authors": [
            {
                "Email": "plasma-devel@kde.org",
                "Name": "The Plasma Team",
                "Name[ar]": "فريق بلازما",
                "Name[az]": "Plasma komandası",
                "Name[ca@valencia]": "L'equip de Plasma",
                "Name[ca]": "L'equip del Plasma",
                "Name[cs]": "Team Plasma",
                "Name[de]": "Das Plasma-Team",
                "Name[en_GB]": "The Plasma Team",
                "Name[es]": "El equipo de Plasma",
                "Name[eu]": "Plasma taldea",
                "Name[fi]": "Plasma-työryhmä",
                "Name[fr]": "L'équipe de Plasma",
                "Name[hu]": "A Plasma fejlesztői",
                "Name[ia]": "Le equipa de Plasma",
                "Name[id]": "Tim Plasma",
                "Name[it]": "La squadra di Plasma",
                "Name[ka]": "Plasma-ის გუნდი",
                "Name[ko]": "Plasma 팀",
                "Name[lt]": "Plasma komanda",
                "Name[nl]": "Het team van Plasma",
                "Name[nn]": "Utviklingslaget for Plasma",
                "Name[pa]": "ਪਲਾਜ਼ਮਾ ਟੀਮ",
                "Name[pl]": "Zespół Plazmy",
                "Name[pt]": "A Equipa do Plasma",
                "Name[pt_BR]": "Temas do Plasma",
                "Name[ro]": "Echipa Plasma",
                "Name[ru]": "Команда разработчиков Plasma",
                "Name[sk]": "Plasma Tím",
                "Name[sl]": "Ekipa Plasme",
                "Name[sv]": "Plasma-gruppen",
                "Name[ta]": "பிளாஸ்மா குழு",
                "Name[tr]": "Plazma Takımı",
                "Name[uk]": "Команда розробників Плазми",
                "Name[vi]": "Đội Plasma",
                "Name[x-test]": "xxThe Plasma Teamxx",
                "Name[zh_CN]": "Plasma 开发团队"
            }
        ],
        "Category": "File System",
        "Description": "A generic icon",
        "Description[ar]": "أيقونة عامّة",
        "Description[az]": "Ümumi nişan",
        "Description[ca@valencia]": "Una icona genèrica",
        "Description[ca]": "Una icona genèrica",
        "Description[cs]": "Obecná ikona",
        "Description[de]": "Ein allgemeines Symbol",
        "Description[en_GB]": "A generic icon",
        "Description[es]": "Un icono genérico",
        "Description[eu]": "Ikono generiko bat",
        "Description[fi]": "Yleiskuvake",
        "Description[fr]": "Une icône générique",
        "Description[hu]": "Általános ikon",
        "Description[ia]": "Un icone generic",
        "Description[id]": "Sebuah ikon generik",
        "Description[it]": "Un'icona generica",
        "Description[ka]": "ზოგადი ხატულა",
        "Description[ko]": "일반적인 아이콘",
        "Description[lt]": "Bendrinė piktograma",
        "Description[nl]": "Een generiek pictogram",
        "Description[nn]": "Eit generisk ikon",
        "Description[pa]": "ਆਮ ਆਈਕਾਨ",
        "Description[pl]": "Zwykła ikona",
        "Description[pt]": "Um ícone genérico",
        "Description[pt_BR]": "Um ícone genérico",
        "Description[ro]": "O pictogramă generică",
        "Description[ru]": "Значок запуска",
        "Description[sk]": "Všeobecná ikona",
        "Description[sl]": "Generična ikona",
        "Description[sv]": "En generell ikon",
        "Description[ta]": "பொதுவான சின்னம்",
        "Description[tr]": "Genel bir simge",
        "Description[uk]": "Загальна піктограма",
        "Description[vi]": "Một biểu tượng chung",
        "Description[x-test]": "xxA generic iconxx",
        "Description[zh_CN]": "通用图标",
        "EnabledByDefault": true,
        "Id": "org.kde.plasma.icon",
        "License": "GPL",
        "Name": "Icon",
        "Name[af]": "Ikoon",
        "Name[ar]": "أيقونة",
        "Name[as]": "আইকন",
        "Name[ast]": "Iconu",
        "Name[az]": "Nişan",
        "Name[be@latin]": "Ikona",
        "Name[bg]": "Икона",
        "Name[bn]": "আইকন",
        "Name[bn_IN]": "আইকন",
        "Name[bs]": "Ikona",
        "Name[ca@valencia]": "Icona",
        "Name[ca]": "Icona",
        "Name[cs]": "Ikona",
        "Name[csb]": "Ikòna",
        "Name[da]": "Ikon",
        "Name[de]": "Symbol",
        "Name[el]": "Εικονίδιο",
        "Name[en_GB]": "Icon",
        "Name[eo]": "Piktogramo",
        "Name[es]": "Icono",
        "Name[et]": "Ikoon",
        "Name[eu]": "Ikonoa",
        "Name[fa]": "شمایل",
        "Name[fi]": "Kuvake",
        "Name[fr]": "Icône",
        "Name[fy]": "Bykdkaike",
        "Name[ga]": "Deilbhín",
        "Name[gl]": "Icona",
        "Name[gu]": "ચિહ્ન",
        "Name[he]": "סימלון",
        "Name[hi]": "प्रतीक",
        "Name[hne]": "चिनहा",
        "Name[hr]": "Ikona",
        "Name[hsb]": "Piktogram",
        "Name[hu]": "Ikon",
        "Name[ia]": "Icone",
        "Name[id]": "Ikon",
        "Name[is]": "Táknmynd",
        "Name[it]": "Icona",
        "Name[ja]": "アイコン",
        "Name[ka]": "ხატულა",
        "Name[kk]": "Таңбаша",
        "Name[km]": "រូប​តំណាង",
        "Name[kn]": "ಚಿಹ್ನೆ",
        "Name[ko]": "아이콘",
        "Name[ku]": "Îkon",
        "Name[lt]": "Piktograma",
        "Name[lv]": "Ikona",
        "Name[mai]": "चिह्न",
        "Name[mk]": "Икона",
        "Name[ml]": "ചിഹ്നം",
        "Name[mr]": "चिन्ह",
        "Name[nb]": "Ikon",
        "Name[nds]": "Lüttbild",
        "Name[nl]": "Pictogram",
        "Name[nn]": "Ikon",
        "Name[oc]": "Icòna",
        "Name[or]": "ଚିତ୍ର ସଂକେତ",
        "Name[pa]": "ਆਈਕਾਨ",
        "Name[pl]": "Ikona",
        "Name[pt]": "Ícone",
        "Name[pt_BR]": "Ícone",
        "Name[ro]": "Pictogramă",
        "Name[ru]": "Значок",
        "Name[se]": "Govaš",
        "Name[si]": "අයිකනය",
        "Name[sk]": "Ikona",
        "Name[sl]": "Ikona",
        "Name[sr@ijekavian]": "икона",
        "Name[sr@ijekavianlatin]": "ikona",
        "Name[sr@latin]": "ikona",
        "Name[sr]": "икона",
        "Name[sv]": "Ikon",
        "Name[ta]": "சின்னம்",
        "Name[te]": "ప్రతిమ",
        "Name[tg]": "Нишона",
        "Name[th]": "ภาพไอคอน",
        "Name[tr]": "Simge",
        "Name[ug]": "سىنبەلگە",
        "Name[uk]": "Піктограма",
        "Name[uz@cyrillic]": "Нишонча",
        "Name[uz]": "Nishoncha",
        "Name[vi]": "Biểu tượng",
        "Name[wa]": "Imådjete",
        "Name[x-test]": "xxIconxx",
        "Name[zh_CN]": "图标",
        "Name[zh_TW]": "圖示",
        "ServiceTypes": [
            "Plasma/Applet"
        ],
        "Version": "1.0",
        "Website": "https://www.kde.org/plasma-desktop"
    },
    "NoDisplay": true,
    "X-Plasma-API": "declarativeappletscript",
    "X-Plasma-MainScript": "ui/main.qml"
}
